{
	"credit": "Made with Blockbench",
	"parent": "block/block",
	"texture_size": [64, 32],
	"textures": {
		"2": "conveyorbelts:block/iron_robotic_arm_top",
		"model": "conveyorbelts:block/iron_robotic_arm_model",
		"particle": "conveyorbelts:block/iron_conveyor_belt_bottom",
		"bottom": "conveyorbelts:block/iron_conveyor_belt_bottom"
	},
	"elements": [
		{
			"name": "base",
			"from": [0, 0, 0],
			"to": [16, 1, 16],
			"faces": {
				"north": {"uv": [0, 0, 16, 1], "texture": "#bottom"},
				"east": {"uv": [0, 0, 16, 1], "texture": "#bottom"},
				"south": {"uv": [0, 0, 16, 1], "texture": "#bottom"},
				"west": {"uv": [0, 0, 16, 1], "texture": "#bottom"},
				"up": {"uv": [0, 0, 16, 16], "rotation": 90, "texture": "#2"},
				"down": {"uv": [0, 0, 16, 16], "texture": "#bottom"}
			}
		},
		{
			"name": "joint",
			"from": [6, 1, 6],
			"to": [10, 5, 10],
			"faces": {
				"north": {"uv": [0, 2, 1, 4], "texture": "#model"},
				"east": {"uv": [1, 2, 2, 4], "texture": "#model"},
				"south": {"uv": [2, 2, 3, 4], "texture": "#model"},
				"west": {"uv": [1, 0, 2, 2], "texture": "#model"},
				"up": {"uv": [2, 0, 3, 2], "texture": "#model"},
				"down": {"uv": [3, 2, 4, 4], "texture": "#model"}
			}
		},
		{
			"name": "joint",
			"from": [7, 3, 6],
			"to": [11, 7, 10],
			"rotation": {"angle": 45, "axis": "z", "origin": [0, 0, 0]},
			"faces": {
				"north": {"uv": [0, 2, 1, 4], "texture": "#model"},
				"east": {"uv": [1, 2, 2, 4], "texture": "#model"},
				"south": {"uv": [2, 2, 3, 4], "texture": "#model"},
				"west": {"uv": [1, 0, 2, 2], "texture": "#model"},
				"up": {"uv": [2, 0, 3, 2], "texture": "#model"},
				"down": {"uv": [3, 2, 4, 4], "texture": "#model"}
			}
		},
		{
			"name": "arm",
			"from": [8, -4, 7],
			"to": [10, 4, 9],
			"rotation": {"angle": 45, "axis": "z", "origin": [0, 0, 0]},
			"faces": {
				"north": {"uv": [5, 2, 5.25, 2.5], "texture": "#model"},
				"east": {"uv": [4.75, 2, 5, 2.5], "texture": "#model"},
				"south": {"uv": [4.75, 1, 5, 1.5], "texture": "#model"},
				"west": {"uv": [5, 1.5, 5.25, 2], "texture": "#model"},
				"up": {"uv": [4.75, 1.5, 5, 2], "texture": "#model"},
				"down": {"uv": [5, 1, 5.25, 1.5], "texture": "#model"}
			}
		},
		{
			"name": "arm",
			"from": [7, 8, 7],
			"to": [15, 10, 9],
			"rotation": {"angle": 22.5, "axis": "z", "origin": [0, 0, 0]},
			"faces": {
				"north": {"uv": [5, 2, 5.25, 2.5], "rotation": 90, "texture": "#model"},
				"east": {"uv": [5, 1, 5.25, 1.5], "rotation": 270, "texture": "#model"},
				"south": {"uv": [4.75, 1, 5, 1.5], "rotation": 270, "texture": "#model"},
				"west": {"uv": [4.75, 1.5, 5, 2], "rotation": 270, "texture": "#model"},
				"up": {"uv": [4.75, 2, 5, 2.5], "rotation": 270, "texture": "#model"},
				"down": {"uv": [5, 1.5, 5.25, 2], "rotation": 270, "texture": "#model"}
			}
		},
		{
			"from": [15, 7, 5],
			"to": [17, 11, 11],
			"rotation": {"angle": 22.5, "axis": "z", "origin": [0, 0, 0]},
			"faces": {
				"north": {"uv": [2.25, 8, 2.75, 10], "texture": "#model"},
				"east": {"uv": [1.25, 7, 2.75, 9], "texture": "#model"},
				"south": {"uv": [2.25, 7.5, 2.75, 9.5], "texture": "#model"},
				"west": {"uv": [1.25, 7, 2.75, 9], "texture": "#model"},
				"up": {"uv": [1.75, 7, 2.25, 10], "texture": "#model"},
				"down": {"uv": [1.75, 7, 2.25, 10], "texture": "#model"}
			}
		},
		{
			"from": [17, 7, 5],
			"to": [19, 11, 6],
			"rotation": {"angle": 22.5, "axis": "z", "origin": [0, 0, 0]},
			"faces": {
				"north": {"uv": [2.25, 7.5, 2.75, 9.5], "texture": "#model"},
				"east": {"uv": [2.25, 7.5, 2.5, 9.5], "texture": "#model"},
				"south": {"uv": [2, 7.5, 2.5, 9.5], "texture": "#model"},
				"west": {"uv": [2, 7.5, 2.25, 9.5], "texture": "#model"},
				"up": {"uv": [1.75, 8, 2.25, 8.5], "texture": "#model"},
				"down": {"uv": [2, 7.5, 2.5, 8], "texture": "#model"}
			}
		},
		{
			"from": [17, 7, 10],
			"to": [19, 11, 11],
			"rotation": {"angle": 22.5, "axis": "z", "origin": [0, 0, 0]},
			"faces": {
				"north": {"uv": [2.25, 7.5, 2.75, 9.5], "texture": "#model"},
				"east": {"uv": [2.25, 7.5, 2.5, 9.5], "texture": "#model"},
				"south": {"uv": [2, 7.5, 2.5, 9.5], "texture": "#model"},
				"west": {"uv": [2, 7.5, 2.25, 9.5], "texture": "#model"},
				"up": {"uv": [1.75, 8, 2.25, 8.5], "texture": "#model"},
				"down": {"uv": [2, 7.5, 2.5, 8], "texture": "#model"}
			}
		}
	],
	"display": {
		"thirdperson_righthand": {
			"rotation": [10, 90, 0],
			"translation": [0, 3.75, 0],
			"scale": [0.4, 0.4, 0.4]
		},
		"thirdperson_lefthand": {
			"rotation": [10, -90, 0],
			"translation": [0, 3.75, 0],
			"scale": [0.4, 0.4, 0.4]
		},
		"firstperson_righthand": {
			"rotation": [0, 102, 23],
			"translation": [0, 4.75, 1.5],
			"scale": [0.3, 0.3, 0.3]
		},
		"firstperson_lefthand": {
			"rotation": [0, -86, -23],
			"translation": [0, 4.75, 1.5],
			"scale": [0.3, 0.3, 0.3]
		},
		"ground": {
			"translation": [0, 3.5, 0],
			"scale": [0.3, 0.3, 0.3]
		},
		"gui": {
			"rotation": [28, -32, 0],
			"translation": [0, 1.5, 0],
			"scale": [0.6, 0.6, 0.6]
		},
		"head": {
			"rotation": [0, 90, 0],
			"translation": [0, 13.5, 0]
		},
		"fixed": {
			"rotation": [-90, -90, 0],
			"translation": [0, 0, -8]
		}
	},
	"groups": [
		{
			"name": "group",
			"origin": [0, 0, 0],
			"color": 0,
			"children": [
				0,
				1,
				2,
				3,
				4,
				{
					"name": "hand",
					"origin": [0, 0, 0],
					"color": 0,
					"children": [5, 6, 7]
				}
			]
		}
	]
}