{
    "type": "minecraft:crafting_shapeless",
    "ingredients": [
        {
            "item": "conveyorbelts:wood_robotic_arm"
        },
        {
            "item": "minecraft:diamond"
        }
    ],
    "result": {
        "item": "conveyorbelts:wood_filter_robotic_arm",
        "count": 1
    }
}
